<?xml version="1.0" encoding="utf-8"?>
<svg version="1.1" id="Layer_1" xmlns="http://www.w3.org/2000/svg" xmlns:xlink="http://www.w3.org/1999/xlink" x="0px" y="0px"
	 viewBox="0 0 48 48" style="enable-background:new 0 0 48 48;" xml:space="preserve">
<path
   d="m 0,23.989338 c 0,4.350067 1.0661928,8.380276 3.2199023,12.047979 2.1537094,3.667703 5.0537539,6.610395 8.7427807,8.742781 C 15.65171,46.912483 19.660595,48 24.010662,48 c 4.350067,0 8.358952,-1.066193 12.047979,-3.219902 3.689027,-2.15371 6.589071,-5.053754 8.721457,-8.742781 C 46.912483,32.34829 48,28.339405 48,23.989338 48,19.639271 46.933807,15.630387 44.780098,11.941359 42.626388,8.2523323 39.726344,5.3522879 36.058641,3.2199023 32.390937,1.0875167 28.360729,0 24.010662,0 19.660595,0 15.65171,1.0875167 11.962683,3.2199023 8.2736562,5.3522879 5.3522879,8.2736562 3.2199023,11.941359 1.0875167,15.609063 0,19.639271 0,23.989338 Z"
   id="path2"
   style="stroke-width:2.13239" />
</svg>
